%YAML 1.1
%TAG !u! tag:unity3d.com,2011:
--- !u!114 &11400000
MonoBehaviour:
  m_ObjectHideFlags: 0
  m_CorrespondingSourceObject: {fileID: 0}
  m_PrefabInstance: {fileID: 0}
  m_PrefabAsset: {fileID: 0}
  m_GameObject: {fileID: 0}
  m_Enabled: 1
  m_EditorHideFlags: 0
  m_Script: {fileID: 11500000, guid: 5d0199c11aa6f514784c5c69cd8378d8, type: 3}
  m_Name: PlayFabEditorPrefsSO
  m_EditorClassIdentifier: 
  DevAccountEmail: gusbrony@gmail.com
  DevAccountToken: xb886c111ntpffedr1musggpn59zfz4ye5rspqujstn5zk7bdp8reij6z9ddmofkmdgjwyzzoh59m5xu5mtk8gkwkug8n6ywbgj96k3qmn1badaqscqkwib81k8cyuf5w718iz4cuazw918m8uyqy1idmu8fuz5cazzujkhfshqzhypggky3gpeug8r7su8f5exqzwsw
  SelectedStudio: Mocochincheros de Oruro
  SdkPath: Assets/PlayFabSDK
  EdExPath: 
  LocalCloudScriptPath: 
  PanelIsShown: 0
  curMainMenuIdx: 1
  curSubMenuIdx: 2
